Admin!!Admin!!Admin3@gmail.com!!Admin!!Admin!!012345466!!Jalan Admin!!Taman Admin!!12345!!Johor!!Admin
Buyer!!Buyer!!Buyer2@gmail.com!!Buyer!!Buyer!!0123957!!Jalan Buyer!!Taman Buyer!!23553!!Johor!!Buyer!!20
Seller!!Seller!!Seller3@gmail.com!!Seller!!Seller!!01237575!!Jalan Seller!!Taman Seller!!13459!!Johor!!Seller!!23!!59619.59
Buyer2!!Buyer2!!Buyer2@gmail.com!!Buyer2!!Buyer2!!2312312!!Buyer2!!Buyer2!!3123123!!Johor!!Buyer!!0
Admin2!!Admin2!!Admin2!!Admin2!!Admin2!!4124!!Admin2!!Admin2!!1123412!!Johor!!Admin
Seller2!!Seller2!!Seller2!!Seller2!!Seller2!!21341241!!Seller2!!Seller2!!312312!!Johor!!Seller!!0!!0.0
Buyer4!!Buyer!!Buyer2@gmaill.com!!Buyer2!!Buyer2!!0123456789!!Jalan Buyer2!!Taman Buyer2!!54302!!Kuala Lumpur!!Buyer!!0
